#! /usr/bin/vvp
:ivl_version "0.9.7 " "(v0_9_7)";
:vpi_time_precision + 0;
:vpi_module "system";
:vpi_module "v2005_math";
:vpi_module "va_math";
S_0x1625790 .scope module, "top_end" "top_end" 2 1;
 .timescale 0 0;
v0x1658ae0_0 .net "a", 0 0, C4<z>; 0 drivers
v0x1658b60_0 .net "b", 0 0, C4<1>; 1 drivers
RS_0x7ff847393078 .resolv tri, v0x1658440_0, v0x1658980_0, C4<z>, C4<z>;
v0x1658c30_0 .net8 "e", 0 0, RS_0x7ff847393078; 2 drivers
S_0x16585b0 .scope generate, "_and[0]" "_and[0]" 2 18, 2 18, S_0x1625790;
 .timescale 0 0;
P_0x16586a8 .param/l "i" 2 18, +C4<00>;
v0x1658a30_0 .net "a1", 0 0, C4<1>; 1 drivers
S_0x1658740 .scope module, "bot_and1" "AND" 2 23, 3 1, S_0x16585b0;
 .timescale 0 0;
v0x1658830_0 .alias "a", 0 0, v0x1658a30_0;
v0x16588d0_0 .alias "b", 0 0, v0x1658b60_0;
v0x1658980_0 .var "c", 0 0;
S_0x1648380 .scope generate, "_and[1]" "_and[1]" 2 18, 2 18, S_0x1625790;
 .timescale 0 0;
P_0x1648d98 .param/l "i" 2 18, +C4<01>;
v0x16584e0_0 .net "a1", 0 0, C4<0>; 1 drivers
S_0x1648470 .scope module, "bot_and1" "AND" 2 23, 3 1, S_0x1648380;
 .timescale 0 0;
v0x1648560_0 .alias "a", 0 0, v0x16584e0_0;
v0x16583a0_0 .alias "b", 0 0, v0x1658b60_0;
v0x1658440_0 .var "c", 0 0;
    .scope S_0x1658740;
T_0 ;
    %load/v 8, v0x1658830_0, 1;
    %load/v 9, v0x16588d0_0, 1;
    %and 8, 9, 1;
    %cassign/v v0x1658980_0, 8, 1;
    %vpi_call 3 10 "$display", "a: %b, b: %b, c: %b \012", v0x1658830_0, v0x16588d0_0, v0x1658980_0;
    %end;
    .thread T_0;
    .scope S_0x1648470;
T_1 ;
    %load/v 9, v0x1648560_0, 1;
    %load/v 10, v0x16583a0_0, 1;
    %and 9, 10, 1;
    %cassign/v v0x1658440_0, 9, 1;
    %vpi_call 3 10 "$display", "a: %b, b: %b, c: %b \012", v0x1648560_0, v0x16583a0_0, v0x1658440_0;
    %end;
    .thread T_1;
# The file index is used to find the file name in the following table.
:file_names 4;
    "N/A";
    "<interactive>";
    "top_and.v";
    "and.v";
